[
  {
    "id": 1,
    "title": "One Step Away",
    "year": 1985,
    "role": "Ron Petrie",
    "director": "Robert Fortier"
  },
  {
    "id": 2,
    "title": "Youngblood",
    "year": 1986,
    "role": "Heaver",
    "director": "Peter Markle"
  },
  {
    "id": 3,
    "title": "Flying",
    "year": 1986,
    "role": "Tommy",
    "director": "Paul Lynch"
  },
  {
    "id": 4,
    "title": "River's Edge",
    "year": 1986,
    "role": "Matt",
    "director": "Tim Hunter"
  },
  {
    "id": 5,
    "title": "The Night Before",
    "year": 1988,
    "role": "Winston Connelly",
    "director": "Thom Eberhardt"
  },
  {
    "id": 6,
    "title": "Permanent Record",
    "year": 1988,
    "role": "Chris Townsend",
    "director": "Marisa Silver"
  },
  {
    "id": 7,
    "title": "The Prince of Pennsylvania",
    "year": 1988,
    "role": "Rupert Marshetta",
    "director": "Ron Nyswaner"
  },
  {
    "id": 8,
    "title": "Dangerous Liaisons",
    "year": 1988,
    "role": "Le Chevalier Raphael Danceny",
    "director": "Stephen Frears"
  },
  {
    "id": 9,
    "title": "Bill & Ted's Excellent Adventure",
    "year": 1989,
    "role": "Ted \"Theodore\" Logan",
    "director": "Stephen Herek"
  },
  {
    "id": 10,
    "title": "Parenthood",
    "year": 1989,
    "role": "Tod Higgins",
    "director": "Ron Howard"
  },
  {
    "id": 11,
    "title": "I Love You to Death",
    "year": 1990,
    "role": "Marlon James",
    "director": "Lawrence Kasdan"
  },
  {
    "id": 12,
    "title": "Tune in Tomorrow",
    "year": 1990,
    "role": "Martin Loader",
    "director": "Jon Amiel"
  },
  {
    "id": 13,
    "title": "Point Break",
    "year": 1991,
    "role": "Johnny Utah",
    "director": "Kathryn Bigelow"
  },
  {
    "id": 14,
    "title": "Bill & Ted's Bogus Journey",
    "year": 1991,
    "role": "Ted \"Theodore\" Logan",
    "director": "Peter Hewitt"
  },
  {
    "id": 15,
    "title": "My Own Private Idaho",
    "year": 1991,
    "role": "Scott Favor",
    "director": "Gus Van Sant"
  },
  {
    "id": 16,
    "title": "Bram Stoker's Dracula",
    "year": 1992,
    "role": "Jonathan Harker",
    "director": "Francis Ford Coppola"
  },
  {
    "id": 17,
    "title": "Much Ado About Nothing",
    "year": 1993,
    "role": "Don John",
    "director": "Kenneth Branagh"
  },
  {
    "id": 18,
    "title": "Even Cowgirls Get the Blues",
    "year": 1993,
    "role": "Julian Gitche",
    "director": "Gus Van Sant"
  },
  {
    "id": 19,
    "title": "Freaked",
    "year": 1993,
    "role": "Ortiz the Dog Boy",
    "director": "Alex Winter, Tom Stern"
  },
  {
    "id": 20,
    "title": "Little Buddha",
    "year": 1993,
    "role": "Prince Siddhartha",
    "director": "Bernardo Bertolucci"
  },
  {
    "id": 21,
    "title": "Speed",
    "year": 1994,
    "role": "Jack Traven",
    "director": "Jan de Bont"
  },
  {
    "id": 22,
    "title": "Johnny Mnemonic",
    "year": 1995,
    "role": "Johnny Mnemonic",
    "director": "Robert Longo"
  },
  {
    "id": 23,
    "title": "A Walk in the Clouds",
    "year": 1995,
    "role": "Paul Sutton",
    "director": "Alfonso Arau"
  },
  {
    "id": 24,
    "title": "Chain Reaction",
    "year": 1996,
    "role": "Eddie Kasalivich",
    "director": "Andrew Davis"
  },
  {
    "id": 25,
    "title": "Feeling Minnesota",
    "year": 1996,
    "role": "Jjaks Clayton",
    "director": "Steven Baigelman"
  },
  {
    "id": 26,
    "title": "The Last Time I Committed Suicide",
    "year": 1997,
    "role": "Harry",
    "director": "Stephen Kay"
  },
  {
    "id": 27,
    "title": "The Devil's Advocate",
    "year": 1997,
    "role": "Kevin Lomax",
    "director": "Taylor Hackford"
  },
  {
    "id": 28,
    "title": "The Matrix",
    "year": 1999,
    "role": "Thomas Anderson / Neo",
    "director": "The Wachowskis"
  },
  {
    "id": 29,
    "title": "Me and Will",
    "year": 1999,
    "role": "Himself",
    "director": "Melissa Behr, Sherrie Rose"
  },
  {
    "id": 30,
    "title": "The Replacements",
    "year": 2000,
    "role": "Shane Falco",
    "director": "Howard Deutch"
  },
  {
    "id": 31,
    "title": "The Watcher",
    "year": 2000,
    "role": "David Allen Griffin",
    "director": "Joe Charbanic"
  },
  {
    "id": 32,
    "title": "The Gift",
    "year": 2000,
    "role": "Donnie Barksdale",
    "director": "Sam Raimi"
  },
  {
    "id": 33,
    "title": "Sweet November",
    "year": 2001,
    "role": "Nelson Moss",
    "director": "Pat O'Connor"
  },
  {
    "id": 34,
    "title": "Hardball",
    "year": 2001,
    "role": "Conor O'Neill",
    "director": "Brian Robbins"
  },
  {
    "id": 35,
    "title": "The Matrix Reloaded",
    "year": 2003,
    "role": "Thomas Anderson / Neo",
    "director": "The Wachowskis"
  },
  {
    "id": 36,
    "title": "The Animatrix",
    "year": 2003,
    "role": "Thomas Anderson / Neo",
    "director": "Shinichiro Watanabe"
  },
  {
    "id": 37,
    "title": "The Matrix Revolutions",
    "year": 2003,
    "role": "Thomas Anderson / Neo",
    "director": "The Wachowskis"
  },
  {
    "id": 38,
    "title": "Something's Gotta Give",
    "year": 2003,
    "role": "Dr. Julian Mercer",
    "director": "Nancy Meyers"
  },
  {
    "id": 39,
    "title": "Constantine",
    "year": 2005,
    "role": "John Constantine",
    "director": "Francis Lawrence"
  },
  {
    "id": 40,
    "title": "Thumbsucker",
    "year": 2005,
    "role": "Dr. Perry Lyman",
    "director": "Mike Mills"
  },
  {
    "id": 41,
    "title": "Ellie Parker",
    "year": 2005,
    "role": "Himself",
    "director": "Scott Coffey"
  },
  {
    "id": 42,
    "title": "A Scanner Darkly",
    "year": 2006,
    "role": "Bob Arctor",
    "director": "Richard Linklater"
  },
  {
    "id": 43,
    "title": "The Lake House",
    "year": 2006,
    "role": "Alex Wyler",
    "director": "Alejandro Agresti"
  },
  {
    "id": 44,
    "title": "Street Kings",
    "year": 2008,
    "role": "Detective Tom Ludlow",
    "director": "David Ayer"
  },
  {
    "id": 45,
    "title": "The Day the Earth Stood Still",
    "year": 2008,
    "role": "Klaatu",
    "director": "Scott Derrickson"
  },
  {
    "id": 46,
    "title": "The Private Lives of Pippa Lee",
    "year": 2008,
    "role": "Chris Nadeau",
    "director": "Rebecca Miller"
  },
  {
    "id": 47,
    "title": "Henry's Crime",
    "year": 2010,
    "role": "Henry Torne",
    "director": "Malcolm Venville"
  },
  {
    "id": 48,
    "title": "Generation Um...",
    "year": 2012,
    "role": "John",
    "director": "Mark L. Mann"
  },
  {
    "id": 49,
    "title": "Man of Tai Chi",
    "year": 2013,
    "role": "Donaka Mark",
    "director": "Himself"
  },
  {
    "id": 50,
    "title": "47 Ronin",
    "year": 2013,
    "role": "Kai",
    "director": "Carl Rinsch"
  },
  {
    "id": 51,
    "title": "John Wick",
    "year": 2014,
    "role": "John Wick",
    "director": "Chad Stahelski"
  },
  {
    "id": 52,
    "title": "Knock Knock",
    "year": 2015,
    "role": "Evan Webber",
    "director": "Eli Roth"
  },
  {
    "id": 53,
    "title": "Exposed",
    "year": 2016,
    "role": "Detective Scott Galban",
    "director": "Declan Dale"
  },
  {
    "id": 54,
    "title": "Keanu",
    "year": 2016,
    "role": "Keanu",
    "director": "Peter Atencio"
  },
  {
    "id": 55,
    "title": "The Neon Demon",
    "year": 2016,
    "role": "Hank",
    "director": "Nicolas Winding Refn"
  },
  {
    "id": 56,
    "title": "The Bad Batch",
    "year": 2016,
    "role": "The Dream",
    "director": "Ana Lily Amirpour"
  },
  {
    "id": 57,
    "title": "The Whole Truth",
    "year": 2016,
    "role": "Richard Ramsay",
    "director": "Courtney Hunt"
  },
  {
    "id": 58,
    "title": "To the Bone",
    "year": 2017,
    "role": "Dr. William Beckham",
    "director": "Marti Noxon"
  },
  {
    "id": 59,
    "title": "John Wick: Chapter 2",
    "year": 2017,
    "role": "John Wick",
    "director": "Chad Stahelski"
  },
  {
    "id": 60,
    "title": "A Happening of Monumental Proportions",
    "year": 2017,
    "role": "Bob",
    "director": "Judy Greer"
  },
  {
    "id": 61,
    "title": "SPF-18",
    "year": 2017,
    "role": "Himself",
    "director": "Alex Israel"
  },
  {
    "id": 62,
    "title": "Siberia",
    "year": 2018,
    "role": "Lucas Hill",
    "director": "Matthew Ross"
  },
  {
    "id": 63,
    "title": "Destination Wedding",
    "year": 2018,
    "role": "Frank",
    "director": "Victor Levin"
  },
  {
    "id": 64,
    "title": "Replicas",
    "year": 2018,
    "role": "Will Foster",
    "director": "Jeffrey Nachmanoff"
  },
  {
    "id": 65,
    "title": "John Wick: Chapter 3 – Parabellum",
    "year": 2019,
    "role": "John Wick",
    "director": "Chad Stahelski"
  },
  {
    "id": 66,
    "title": "Always Be My Maybe",
    "year": 2019,
    "role": "Himself",
    "director": "Nahnatchka Khan"
  },
  {
    "id": 67,
    "title": "Toy Story 4",
    "year": 2019,
    "role": "Duke Caboom",
    "director": "Josh Cooley"
  },
  {
    "id": 68,
    "title": "Bill & Ted Face the Music Films",
    "year": 2020,
    "role": "Ted \"Theodore\" Logan",
    "director": "Dean Parisot"
  }
]